module gitlab.com/gitlab-org/gitlab-pages

// before bumping this:
// - update the minimum version used in ci
// - make sure the internal/vfs/serving package is synced with upstream
//   - which can be done in the go repository with:
//     git log --oneline -s -L:serveContent:src/net/http/fs.go --since="2021-02-16"
go 1.23.0

toolchain go1.23.6

require (
	github.com/3th1nk/cidr v0.2.0
	github.com/golang-jwt/jwt/v5 v5.2.1
	github.com/golang/mock v1.6.0
	github.com/gorilla/handlers v1.5.2
	github.com/gorilla/mux v1.8.1
	github.com/gorilla/securecookie v1.1.2
	github.com/gorilla/sessions v1.3.0
	github.com/hashicorp/go-multierror v1.1.1
	github.com/karlseguin/ccache/v3 v3.0.6
	github.com/namsral/flag v1.7.4-pre
	github.com/patrickmn/go-cache v2.1.0+incompatible
	github.com/pires/go-proxyproto v0.8.0
	github.com/prometheus/client_golang v1.20.5
	github.com/rs/cors v1.11.1
	github.com/sirupsen/logrus v1.9.3
	github.com/stretchr/testify v1.10.0
	github.com/tj/go-redirects v0.0.0-20200911105812-fd1ba1020b37
	gitlab.com/feistel/go-contentencoding v1.0.0
	gitlab.com/gitlab-org/go-mimedb v1.52.0
	gitlab.com/gitlab-org/labkit v1.22.0
	go.uber.org/automaxprocs v1.6.0
	go.uber.org/goleak v1.3.0
	golang.org/x/crypto v0.35.0
	golang.org/x/net v0.35.0
	golang.org/x/sync v0.11.0
	golang.org/x/time v0.9.0
)

require (
	cloud.google.com/go v0.110.7 // indirect
	cloud.google.com/go/compute/metadata v0.3.0 // indirect
	cloud.google.com/go/profiler v0.1.0 // indirect
	github.com/beorn7/perks v1.0.1 // indirect
	github.com/cespare/xxhash/v2 v2.3.0 // indirect
	github.com/davecgh/go-spew v1.1.1 // indirect
	github.com/felixge/httpsnoop v1.0.3 // indirect
	github.com/getsentry/sentry-go v0.13.0 // indirect
	github.com/golang/groupcache v0.0.0-20210331224755-41bb18bfe9da // indirect
	github.com/golang/protobuf v1.5.3 // indirect
	github.com/google/pprof v0.0.0-20210804190019-f964ff605595 // indirect
	github.com/google/s2a-go v0.1.4 // indirect
	github.com/googleapis/enterprise-certificate-proxy v0.2.3 // indirect
	github.com/googleapis/gax-go/v2 v2.11.0 // indirect
	github.com/hashicorp/errwrap v1.0.0 // indirect
	github.com/klauspost/compress v1.17.9 // indirect
	github.com/kr/text v0.2.0 // indirect
	github.com/kylelemons/godebug v1.1.0 // indirect
	github.com/munnerz/goautoneg v0.0.0-20191010083416-a7dc8b61c822 // indirect
	github.com/oklog/ulid/v2 v2.0.2 // indirect
	github.com/pkg/errors v0.9.1 // indirect
	github.com/pmezard/go-difflib v1.0.0 // indirect
	github.com/prometheus/client_model v0.6.1 // indirect
	github.com/prometheus/common v0.60.0 // indirect
	github.com/prometheus/procfs v0.15.1 // indirect
	github.com/rogpeppe/go-internal v1.11.0 // indirect
	github.com/sebest/xff v0.0.0-20210106013422-671bd2870b3a // indirect
	github.com/tj/assert v0.0.3 // indirect
	gitlab.com/gitlab-org/go/reopen v1.0.0 // indirect
	go.opencensus.io v0.24.0 // indirect
	golang.org/x/oauth2 v0.23.0 // indirect
	golang.org/x/sys v0.30.0 // indirect
	golang.org/x/text v0.22.0 // indirect
	google.golang.org/api v0.126.0 // indirect
	google.golang.org/appengine v1.6.7 // indirect
	google.golang.org/genproto v0.0.0-20230822172742-b8732ec3820d // indirect
	google.golang.org/genproto/googleapis/api v0.0.0-20230822172742-b8732ec3820d // indirect
	google.golang.org/genproto/googleapis/rpc v0.0.0-20230822172742-b8732ec3820d // indirect
	google.golang.org/grpc v1.59.0 // indirect
	google.golang.org/protobuf v1.34.2 // indirect
	gopkg.in/yaml.v3 v3.0.1 // indirect
)
